<?xml version="1.0" encoding="UTF-8"?>
<svg width="52px" height="48px" viewBox="0 0 52 48" version="1.1" xmlns="http://www.w3.org/2000/svg" xmlns:xlink="http://www.w3.org/1999/xlink">
    <!-- Generator: Sketch 42 (36781) - http://www.bohemiancoding.com/sketch -->
    <title>Artboard</title>
    <desc>Created with Sketch.</desc>
    <defs></defs>
    <g id="Page-1" stroke="none" stroke-width="1" fill="none" fill-rule="evenodd">
        <g id="Artboard" stroke-width="5" stroke="#000000">
            <g id="top_wishlist_select" transform="translate(3.000000, 1.000000)">
                <g id="Layer_1">
                    <path d="M31.7,2 C27.8,2 24.4,3.9 22.1,6.9 C19.8,3.9 16.3,2 12.5,2 C10.3,2 8.3,2.6 6.5,3.7 C2.6,6 0,10.4 0,15.5 C0,17 0.2,18.4 0.6,19.7 C2.6,30.1 22,43.3 22,43.3 C22,43.3 41.4,30.2 43.5,19.7 C43.9,18.4 44.1,17 44.1,15.5 C44.1,10.4 41.5,6 37.7,3.7 C35.9,2.6 33.9,2 31.7,2 Z" id="Shape"></path>
                </g>
            </g>
        </g>
    </g>
</svg>